<svg xmlns="http://www.w3.org/2000/svg" width="24" height="24">
    <path data-name="Path 124" d="M0 0h24v24H0z" style="fill:none"/>
    <path data-name="Path 125" d="m11.99 18.54-7.37-5.73L3 14.07l9 7 9-7-1.63-1.27zM12 16l7.36-5.73L21 9l-9-7-9 7 1.63 1.27zm0-11.47L17.74 9 12 13.47 6.26 9 12 4.53z" style="fill:#525252"/>
</svg>
